[
  {
    "id": 1,
    "type": "day",
    "date": "25-06-2018",
    "intervals": [
      {
        "start": "09:30",
        "end": "10:20"
      },
      {
        "start": "10:30",
        "end": "11:00"
      }
    ]
  },
  {
    "id": 2,
    "type": "daily",
    "date": "",
    "weekday": "",
    "intervals": [
      {
        "start": "09:30",
        "end": "10:10"
      }
    ]
  },
  {
    "id": 3,
    "type": "weekly",
    "date": "",
    "weekday": [
      1,
      3
    ],
    "intervals": [
      {
        "start": "14:00",
        "end": "14:30"
      }
    ]
  }
]
